{
  "type": "service_account",
  "project_id": "fireover-c8ebc",
  "private_key_id": "71fd58549e7b1717e016604b7c5fbfa3a85c6b4d",
  "private_key": "-----BEGIN PRIVATE KEY-----\nMIIEvgIBADANBgkqhkiG9w0BAQEFAASCBKgwggSkAgEAAoIBAQCoD6d+L4f5UfB9\nxmfd08RHXtGYGP7VSrHUrxnxXM4ja2bJvZZmbbYTKXTKczVYPaG3yOc5QnUxQSNv\nUZk3m6YXscOpIq1WeWTgyqrhraIaldjOWaknvy/+t+AisWEKeLg6DbHKl15yzDCO\nP8tJHOPRQAHXDw5DEIOCrEytnzO8YAj40V/YXKocwd11janMfogPyuSf1iV3GAhI\nzJNNPgceKAcdYf/WWdD71Yjp/wFzLmhJXlaNk5JcNy18MjR5df4npHHwse5FvIdy\nIgkkBs3fpc9Ottrc5b/inqzi56TEbJsV5ONMd7+wt0iY5ZmTwrwSEtHRY5/ewE4v\nYjeLmXDLAgMBAAECggEAASQraC7pOjOao4uTjKl8U8zcbku2ffsX0fRRytZtVmN2\nKYNXXL18xTdSBaoovGnyu5ZG2Xuj/4roiKO3Rl/J1QTOFGgEfanJ74gylTaJQlYu\ngVitwDsSNDORWtBKyCKzZukUV4KyMx0K3rRuFwmEPlJCdH6zvCXbSI1HxLD2P3sQ\na8+K9vgN/nwO4LTO95ukfOnuTgnv2P/inOEqJSGWRdMm845L0w4Heaqcxe5F+Pmc\nK1yIgtfZNj1q+zVHWxkk0xwU5kLIna45XsDm1C/F2lvAIbtw/724B8jTuMxE0gFV\nSsy452bqmw1OamsZonNOOXxfYZ2rfmuQiFzNW7yD3QKBgQDmVnP2eVwrvMPNCq/A\nqNouTrQDzoD54z56IQBHxC8ie7uUBxhJVbZNZrHyJEc5P2Y+Z2lIKP/bJjvRv2J8\n2NalgnCnMEsh8L6LZo52oCX4wc1ISKmvekjZt3FvWVofX2DcyUBNmndBJKbCKlMG\nSAXpyKAqu+/xqTek7zdh+PZHfQKBgQC6yP0QwAqUwOrHJl+uKhkQGFgaQpsPPLMU\nWLDlAoyp2qVEse5rXReHduwNViHuiNVXoM9jsNdNk8MdxCO5lWfyZl3fdC1Iwe0t\nr5QRdS8R8wdx0JQtvaiAtMwvqREcrUYuAViam+VTxrDNqRtheq76zKKx9JqCBqcU\nFvmfasPb5wKBgQCZx1pAUaHRqYLnn5za+WBAzlasu++r5aVOkD3JrBbz5LvFBj+W\nplzBrDBdQw8yDzvJqezGOmkm/I2vaSDtzS7w7PcdB8cBb+Mm2l9+n0j6nRjai3iO\nKQv+HtTizDq4+0qF3O7LYLcBjOCwfOVVKjyYalNUdIirRJhby0GkbTyvWQKBgAHN\nHmOi9ncoxRrWi+WqEkPNeEwIiGZFN5TiphIPTDv3F9DpxlrSsv9jbjNSuVELkMMf\nkeBsPCdLXX5T/eQ0RKRZyF33SNiCxj7CirMAZkvOBCxczpECWzWiiLWM89VK9npL\nGQekqTl9mQbispjmDfntL0R4D2Vhmwrejdmztd/RAoGBAJUq5dObBWVr1BIvm2bd\njutIGCPM4+j/FE2QekQoJz9jut7XX1ftZ0L8cTR11BEowHc3cAWPw0sfkLKk8yGl\ncA4RerCeBJg6evzI4J+AZVXPLJjX3SkQbuiCwFu6ZZ3J93lKQ1MDuwgjpBEWIlvw\nWUbTL2H71ATVjkKe9SSTL9iC\n-----END PRIVATE KEY-----\n",
  "client_email": "firebase-adminsdk-idehe@fireover-c8ebc.iam.gserviceaccount.com",
  "client_id": "105549876698334102925",
  "auth_uri": "https://accounts.google.com/o/oauth2/auth",
  "token_uri": "https://oauth2.googleapis.com/token",
  "auth_provider_x509_cert_url": "https://www.googleapis.com/oauth2/v1/certs",
  "client_x509_cert_url": "https://www.googleapis.com/robot/v1/metadata/x509/firebase-adminsdk-idehe%40fireover-c8ebc.iam.gserviceaccount.com"
}
